Homerwork 1
…
Code

most_love_interests_actors

# A tibble: 1 × 2
  actor_1_name total_love_interests
  <chr>                       <int>
1 Keanu Reeves                   24

Code

age_difference_over_years

# A tibble: 82 × 3
   release_year mean_age_difference median_age_difference
          <dbl>               <dbl>                 <dbl>
 1         1935               13                     13  
 2         1936               21                     21  
 3         1937                7.33                   9  
 4         1939               12                     12  
 5         1940               11.3                   10  
 6         1942               20.5                   20.5
 7         1944               25                     25  
 8         1946               25                     25  
 9         1947               25                     25  
10         1948               23.2                   25  
# ℹ 72 more rows
…
